%!Adobe-FontList 1.20
%Locale:0x409

%BeginFont
Handler:DirectoryHandler
FontType:Type1
FontName:Carthage-Regular
FamilyName:Carthage
StyleName:Regular
MenuName:Carthage
StyleBits:0
WeightClass:400
WidthClass:5
AngleClass:0
FullName:Carthage Regular
WritingScript:Roman
OutlineFileName:/Users/grizcs/Documents/ANRT/Workshop_Emilie/Specimen/rendu-affiche-specimen_A2 Folder/Document fonts/Carthage-Regular.otf
DataFormat:sfntData
UsesStandardEncoding:yes
isCFF:yes
hasSVG:no
VariableFontType:NonVariableFont
FileLength:18788
FileModTime:592500090
NameArray:0,Mac,4,Carthage Regular
NameArray:0,Win,1,Carthage
%EndFont

%BeginFont
Handler:DirectoryHandler
FontType:Type1
FontName:MinionPro-Regular
FamilyName:Minion Pro
StyleName:Regular
MenuName:Minion Pro
StyleBits:0
WeightClass:400
WidthClass:5
AngleClass:0
FullName:Minion Pro
WritingScript:Roman
OutlineFileName:/Users/grizcs/Documents/ANRT/Workshop_Emilie/Specimen/rendu-affiche-specimen_A2 Folder/Document fonts/MinionPro-Regular.otf
DataFormat:sfntData
UsesStandardEncoding:yes
isCFF:yes
hasSVG:no
VariableFontType:NonVariableFont
FileLength:218640
FileModTime:592478646
DesignSize:110
NameArray:0,Mac,4,Minion Pro
NameArray:0,Win,1,Minion Pro
%EndFont

